{
  "migIndex": 1,
  "data": [
    {
      "path": "src/assets/fonts/Montserrat/Montserrat-Black.ttf",
      "sha1": "d6efdc8c120df6af92ad5836c150bcbdac58b44e"
    },
    {
      "path": "src/assets/fonts/Montserrat/Montserrat-BlackItalic.ttf",
      "sha1": "5ebf61d6abc52feafe972df8a4c06f120f401fe0"
    },
    {
      "path": "src/assets/fonts/Montserrat/Montserrat-Bold.ttf",
      "sha1": "97e2be433a5c4f622112b723d9ea9a23df6338f4"
    },
    {
      "path": "src/assets/fonts/Montserrat/Montserrat-BoldItalic.ttf",
      "sha1": "98cfe7692bfc754c2007b3689a8e81e739a06ea1"
    },
    {
      "path": "src/assets/fonts/Montserrat/Montserrat-ExtraBold.ttf",
      "sha1": "7ca2cd2eae0ed0c291a02296d7467ce0cad64afc"
    },
    {
      "path": "src/assets/fonts/Montserrat/Montserrat-ExtraBoldItalic.ttf",
      "sha1": "6c35f02984850f923c8193e46922c957c3c55964"
    },
    {
      "path": "src/assets/fonts/Montserrat/Montserrat-ExtraLight.ttf",
      "sha1": "0045e8ed82ec04dcf83f2330ab7cdaa7d5f65b84"
    },
    {
      "path": "src/assets/fonts/Montserrat/Montserrat-ExtraLightItalic.ttf",
      "sha1": "f870c8ddb9d780ffb374a2dbf0031cb23121c438"
    },
    {
      "path": "src/assets/fonts/Montserrat/Montserrat-Italic.ttf",
      "sha1": "a60d6f00e83110d2bc0d828af0d5f57d137d979f"
    },
    {
      "path": "src/assets/fonts/Montserrat/Montserrat-Light.ttf",
      "sha1": "3571554641eb70658156b4f3705057a9cd380c7b"
    },
    {
      "path": "src/assets/fonts/Montserrat/Montserrat-LightItalic.ttf",
      "sha1": "805aac14f1b0345f6994206413b29fcebbc1d8d6"
    },
    {
      "path": "src/assets/fonts/Montserrat/Montserrat-Medium.ttf",
      "sha1": "6fd70300b7e19aa191a5eb06dc0374c46ca97dcb"
    },
    {
      "path": "src/assets/fonts/Montserrat/Montserrat-MediumItalic.ttf",
      "sha1": "87044a5e426a6ebdc6880ea012ebf6f0c1281b09"
    },
    {
      "path": "src/assets/fonts/Montserrat/Montserrat-Regular.ttf",
      "sha1": "6b81c92b065c20c37190d983a79fa38cf6e60552"
    },
    {
      "path": "src/assets/fonts/Montserrat/Montserrat-SemiBold.ttf",
      "sha1": "201ccee5dcb1e9d38716168f3a56598a6808ed51"
    },
    {
      "path": "src/assets/fonts/Montserrat/Montserrat-SemiBoldItalic.ttf",
      "sha1": "464d0c754c76241288c3d792a11f13bde9a927dc"
    },
    {
      "path": "src/assets/fonts/Montserrat/Montserrat-Thin.ttf",
      "sha1": "32564a6e35f7ff6c4a66fa493f5174aee3cc3ca6"
    },
    {
      "path": "src/assets/fonts/Montserrat/Montserrat-ThinItalic.ttf",
      "sha1": "21fdb007ec60c23df8ef1fbb586b397b2f1f099a"
    },
    {
      "path": "src/assets/fonts/Poppins/Poppins-Black.ttf",
      "sha1": "645e04c53c6b5b35bce654a811ebce16af8aa721"
    },
    {
      "path": "src/assets/fonts/Poppins/Poppins-BlackItalic.ttf",
      "sha1": "be4ef2aac7775a4b0179c0ecfce6cea8f7783f63"
    },
    {
      "path": "src/assets/fonts/Poppins/Poppins-Bold.ttf",
      "sha1": "875cf0cecd647bcf22e79d633d868c1b1ec98dfa"
    },
    {
      "path": "src/assets/fonts/Poppins/Poppins-BoldItalic.ttf",
      "sha1": "6de8952ca08d27ee77f57347d2cef4b4e26aa78f"
    },
    {
      "path": "src/assets/fonts/Poppins/Poppins-ExtraBold.ttf",
      "sha1": "4b5c0750f073abd576413a0898d3b95adaf199c8"
    },
    {
      "path": "src/assets/fonts/Poppins/Poppins-ExtraBoldItalic.ttf",
      "sha1": "94d3ee3acdbd00e37a715a25f2b5237666b5b8a3"
    },
    {
      "path": "src/assets/fonts/Poppins/Poppins-ExtraLight.ttf",
      "sha1": "85af6582a7e6155917c605f9d3fed68c02b23b06"
    },
    {
      "path": "src/assets/fonts/Poppins/Poppins-ExtraLightItalic.ttf",
      "sha1": "6fa0418f91032680d2d8fe4843009f2c80faa61d"
    },
    {
      "path": "src/assets/fonts/Poppins/Poppins-Italic.ttf",
      "sha1": "e2bfcd56016c3c915221ef1c5fc1a17b0776eb91"
    },
    {
      "path": "src/assets/fonts/Poppins/Poppins-Light.ttf",
      "sha1": "e247a92158e112f8bf7b638c8d95381d66b00dbb"
    },
    {
      "path": "src/assets/fonts/Poppins/Poppins-LightItalic.ttf",
      "sha1": "f76102b361e705751a83b7b22fe954daf1f27dd4"
    },
    {
      "path": "src/assets/fonts/Poppins/Poppins-Medium.ttf",
      "sha1": "283f21b44efbdbf276ba802be2d949a36bbc4233"
    },
    {
      "path": "src/assets/fonts/Poppins/Poppins-MediumItalic.ttf",
      "sha1": "b592c62fdf88c40cfd0f031bba6423b1d4430472"
    },
    {
      "path": "src/assets/fonts/Poppins/Poppins-Regular.ttf",
      "sha1": "440dc8992517a306d66e55cb0afed0cfe9b971b5"
    },
    {
      "path": "src/assets/fonts/Poppins/Poppins-SemiBold.ttf",
      "sha1": "8a4ace9392d06bcb7f8ea2f5169b07e4c383a90d"
    },
    {
      "path": "src/assets/fonts/Poppins/Poppins-SemiBoldItalic.ttf",
      "sha1": "0c8bed0a5942b2388d36b11c115685d9f01700b0"
    },
    {
      "path": "src/assets/fonts/Poppins/Poppins-Thin.ttf",
      "sha1": "09ba4dcd5509c8085bf88c665dcc51cbdfced27b"
    },
    {
      "path": "src/assets/fonts/Poppins/Poppins-ThinItalic.ttf",
      "sha1": "fb8fccca21550e71135f92bbaf8a2e8a12c90465"
    }
  ]
}
